{
  "host": "localhost",
  "port": 8000,
  "public": "../public/",
  "paginate": {
    "default": 10,
    "max": 50
  },
  "authentication": {
    "entity": "user",
    "service": "users",
    "secret": "4AfejGEDx/pDtlo11oC0AWe0/5w=",
    "authStrategies": [
      "jwt",
      "local"
    ],
    "jwtOptions": {
      "header": {
        "typ": "access"
      },
      "audience": "https://yourdomain.com",
      "issuer": "feathers",
      "algorithm": "HS256",
      "expiresIn": "1d"
    },
    "local": {
      "usernameField": "email",
      "passwordField": "password"
    },
    "oauth": {
      "redirect": "/",
      "auth0": {
        "key": "<auth0 oauth key>",
        "secret": "<auth0 oauth secret>",
        "subdomain": "<auth0 subdomain>"
      }
    }
  },
  "mongodb": "mongodb://mongo:27017/feathers"
}
